<?xml version="1.0" encoding="UTF-8"?>
<!DOCTYPE svg PUBLIC "-//W3C//DTD SVG 1.1//EN" "http://www.w3.org/Graphics/SVG/1.1/DTD/svg11.dtd">
<!-- Creator: CorelDRAW 2018 (64 Bit) -->
<svg xmlns="http://www.w3.org/2000/svg" xml:space="preserve" width="5.4925mm" height="5.6444mm" version="1.1" style="shape-rendering:geometricPrecision; text-rendering:geometricPrecision; image-rendering:optimizeQuality; fill-rule:evenodd; clip-rule:evenodd"
viewBox="0 0 13.55 13.93"
 xmlns:xlink="http://www.w3.org/1999/xlink">
 <defs>
  <style type="text/css">
   <![CDATA[
    .fil0 {fill:#FFFFFF;fill-rule:nonzero}
   ]]>
  </style>
 </defs>
 <g id="Conteúdo_x0020_de_x0020_símbolos">
  <metadata id="CorelCorpID_0Corel-Layer"/>
  <path class="fil0" d="M13.55 3.98l0 5.97c0,1.1 -0.45,2.09 -1.17,2.81 -0.72,0.72 -1.71,1.17 -2.81,1.17l-5.6 0c-1.1,0 -2.09,-0.45 -2.81,-1.17 -0.72,-0.72 -1.17,-1.71 -1.17,-2.81l0 -5.97c0,-1.1 0.45,-2.09 1.17,-2.81 0.72,-0.72 1.71,-1.17 2.81,-1.17l5.6 0c1.1,0 2.09,0.45 2.81,1.17 0.72,0.72 1.17,1.71 1.17,2.81zm-2.12 -0.84c0,0.48 -0.39,0.86 -0.86,0.86 -0.48,0 -0.86,-0.39 -0.86,-0.86 0,-0.48 0.39,-0.86 0.86,-0.86 0.48,0 0.86,0.39 0.86,0.86zm-0.96 3.82c-0.02,1.02 -0.44,1.95 -1.1,2.61 -0.66,0.66 -1.58,1.07 -2.59,1.07 -1.02,0 -1.95,-0.41 -2.62,-1.08 -0.67,-0.67 -1.08,-1.59 -1.08,-2.62 0,-0.01 0,-0.02 0,-0.11 0.03,-0.98 0.44,-1.87 1.08,-2.53 0.65,-0.66 1.54,-1.07 2.53,-1.07 0.02,0 0.02,0 0.1,0 1.17,0.03 2.07,0.42 2.69,1.05 0.68,0.68 1.01,1.62 0.99,2.66zm-1.99 1.73c0.45,-0.45 0.73,-1.07 0.74,-1.76 0.02,-0.71 -0.2,-1.33 -0.63,-1.76 -0.41,-0.41 -1.02,-0.66 -1.85,-0.69 -0.03,-0 0,0 -0.07,0 -0.64,0 -1.22,0.27 -1.65,0.7 -0.43,0.43 -0.7,1.03 -0.72,1.68 -0,0.03 0,-0 0,0.07 0,0.68 0.27,1.29 0.72,1.73 0.44,0.44 1.06,0.72 1.73,0.72 0.67,0 1.27,-0.27 1.71,-0.71zm1.09 -7.67l-5.6 0c-0.82,0 -1.56,0.33 -2.09,0.87 -0.54,0.54 -0.87,1.27 -0.87,2.09l0 5.97c0,0.82 0.33,1.56 0.87,2.09 0.54,0.54 1.27,0.87 2.09,0.87l5.6 0c0.82,0 1.56,-0.33 2.09,-0.87 0.54,-0.54 0.87,-1.27 0.87,-2.09l0 -5.97c0,-0.82 -0.33,-1.56 -0.87,-2.09 -0.54,-0.54 -1.27,-0.87 -2.09,-0.87z"/>
 </g>
</svg>
